<svg width="24" height="34" viewBox="0 0 24 34" fill="none" xmlns="http://www.w3.org/2000/svg">
  <path d="M21.5879 16.667L1.58789 16.667" stroke="white" stroke-width="2" stroke-linecap="square" stroke-linejoin="round" />
  <path d="M16.333 23.3335L22.9997 16.6668L16.333 10.0002" stroke="white" stroke-width="2" stroke-linecap="square" stroke-linejoin="round" />
</svg>